module webstore

go 1.15

require (
	github.com/andybalholm/brotli v1.0.1 // indirect
	github.com/gofiber/fiber/v2 v2.3.3
	github.com/klauspost/compress v1.11.7 // indirect
	github.com/valyala/fasthttp v1.19.0 // indirect
	golang.org/x/sys v0.0.0-20210123231150-1d476976d117 // indirect
)
